{
  "builds": [
    {
      "name": "ma1sd",
      "builder_type": "amazon-ebs",
      "build_time": 1600003832,
      "files": null,
      "artifact_id": "eu-central-1:ami-02c34d854ac3c38da",
      "packer_run_uuid": "4c519715-5c39-27ac-65e6-41f06eb6bbce",
      "custom_data": null
    },
    {
      "name": "ma1sd",
      "builder_type": "amazon-ebs",
      "build_time": 1600004892,
      "files": null,
      "artifact_id": "eu-central-1:ami-091360b91d72f4b0b",
      "packer_run_uuid": "20e94145-2cf9-d9a1-1cb0-566468360b92",
      "custom_data": null
    },
    {
      "name": "ma1sd",
      "builder_type": "amazon-ebs",
      "build_time": 1600005314,
      "files": null,
      "artifact_id": "eu-central-1:ami-0ef7996b8d07449da",
      "packer_run_uuid": "011ac945-eb2d-a136-c440-f5a3d457ce39",
      "custom_data": null
    },
    {
      "name": "ma1sd",
      "builder_type": "amazon-ebs",
      "build_time": 1600008281,
      "files": null,
      "artifact_id": "eu-central-1:ami-0dc731de9fdcbeaa2",
      "packer_run_uuid": "c606f06f-040e-9acb-2846-77568f64ada6",
      "custom_data": null
    },
    {
      "name": "ma1sd",
      "builder_type": "amazon-ebs",
      "build_time": 1600008888,
      "files": null,
      "artifact_id": "eu-central-1:ami-05a3a1f8f5773031e",
      "packer_run_uuid": "9396da21-90aa-1c39-1418-9ff271fb3737",
      "custom_data": null
    },
    {
      "name": "ma1sd",
      "builder_type": "amazon-ebs",
      "build_time": 1600009748,
      "files": null,
      "artifact_id": "eu-central-1:ami-05a521d8c472093df",
      "packer_run_uuid": "505aeb22-d5a5-c83c-da68-2e3ee5f0d0f4",
      "custom_data": null
    },
    {
      "name": "ma1sd",
      "builder_type": "amazon-ebs",
      "build_time": 1600089617,
      "files": null,
      "artifact_id": "eu-central-1:ami-0ab122329d738a809",
      "packer_run_uuid": "1e7b6bf1-f480-1fa1-dff3-64ace19cad7d",
      "custom_data": null
    },
    {
      "name": "ma1sd",
      "builder_type": "amazon-ebs",
      "build_time": 1600090226,
      "files": null,
      "artifact_id": "eu-central-1:ami-0baf52eb964d57398",
      "packer_run_uuid": "7d6ab9ab-e61d-c802-0a97-e308da66d076",
      "custom_data": null
    }
  ],
  "last_run_uuid": "7d6ab9ab-e61d-c802-0a97-e308da66d076"
}